# 
# Wavefront material file
# Converted by the DEEP Exploration  Deep Exploration 5 5.0.2.1477 Release
# Right Hemisphere, LTD
# http://www.righthemisphere.com/
# 

newmtl Default
Ka 0.698039 0.698039 0.698039
Kd 0.698039 0.698039 0.698039
Ks 1 1 1
illum 2
Ns 64
map_Kd 
map_bump 
bump 
map_opacity 
map_d 
refl 
map_kS 
map_kA 
map_Ns 

newmtl poplocenje
Ka 0 0 0
Kd 1 1 1
Ks 0 0 0
illum 2
Ns 8
map_Kd data/KAMEN3.bmp
map_bump 
bump 
map_opacity 
map_d 
refl 
map_kS 
map_kA 
map_Ns 

newmtl kuce
Ka 0 0 0
Kd 1 1 1
Ks 0 0 0
illum 2
Ns 8
map_Kd data/KAMEN3.bmp
map_bump 
bump 
map_opacity 
map_d 
refl 
map_kS 
map_kA 
map_Ns 

newmtl staklo_zuto
Ka 0 0 0
Kd 0.498039 0.443137 0.00392157
Ks 1 0.890196 0.00784314
illum 2
Ns 256
d 0.81
map_Kd 
map_bump 
bump 
map_opacity 
map_d 
refl 
map_kS 
map_kA 
map_Ns 

newmtl kamen_zid_prozor
Ka 0 0 0
Kd 1 1 1
Ks 0 0 0
illum 2
Ns 8
map_Kd data/KAMEN3.bmp
map_bump 
bump 
map_opacity 
map_d 
refl 
map_kS 
map_kA 
map_Ns 

newmtl pod_rub
Ka 0 0 0
Kd 1 1 1
Ks 0 0 0
illum 2
Ns 8
map_Kd data/KAMEN3.bmp
map_bump 
bump 
map_opacity 
map_d 
refl 
map_kS 
map_kA 
map_Ns 

newmtl staklo_plavo
Ka 0 0 0
Kd 0.0392157 0.0705882 0.392157
Ks 0.0823529 0.145098 0.784314
illum 2
Ns 256
d 0.81
map_Kd 
map_bump 
bump 
map_opacity 
map_d 
refl 
map_kS 
map_kA 
map_Ns 

newmtl staklo_crveno
Ka 0 0 0
Kd 0.439216 0.101961 0.0470588
Ks 0.882353 0.207843 0.0980392
illum 2
Ns 256
d 0.81
map_Kd 
map_bump 
bump 
map_opacity 
map_d 
refl 
map_kS 
map_kA 
map_Ns 

newmtl sprljci
Ka 0 0 0
Kd 0.784314 0.784314 0.784314
Ks 0 0 0
illum 2
Ns 8
map_Kd 
map_bump 
bump 
map_opacity 
map_d 
refl 
map_kS 
map_kA 
map_Ns 

newmtl staklo_zeleno
Ka 0 0 0
Kd 0.0313726 0.313726 0.0352941
Ks 0.0666667 0.631373 0.0745098
illum 2
Ns 256
d 0.81
map_Kd 
map_bump 
bump 
map_opacity 
map_d 
refl 
map_kS 
map_kA 
map_Ns 

newmtl rozeta
Ka 0 0 0
Kd 1 1 1
Ks 0 0 0
illum 2
Ns 8
map_Kd data/KAMEN1.bmp
map_bump 
bump 
map_opacity 
map_d 
refl 
map_kS 
map_kA 
map_Ns 

newmtl kamen_zid_parape
Ka 0 0 0
Kd 1 1 1
Ks 0 0 0
illum 2
Ns 8
map_Kd data/KAMEN1.bmp
map_bump 
bump 
map_opacity 
map_d 
refl 
map_kS 
map_kA 
map_Ns 

newmtl zid_vani
Ka 0 0 0
Kd 1 1 1
Ks 0 0 0
illum 2
Ns 8
map_Kd data/KAMEN3.bmp
map_bump 
bump 
map_opacity 
map_d 
refl 
map_kS 
map_kA 
map_Ns 

newmtl glas
Ka 0.639216 0.639216 0.639216
Kd 1 1 1
Ks 1 1 1
illum 2
Ns 36.7583
d 0.5
map_Kd 
map_bump 
bump 
map_opacity 
map_d 
refl 
map_kS 
map_kA 
map_Ns 

newmtl pod
Ka 0 0 0
Kd 1 1 1
Ks 0 0 0
illum 2
Ns 8
map_Kd data/MRAMOR.bmp
map_bump 
bump 
map_opacity 
map_d 
refl 
map_kS 
map_kA 
map_Ns 

newmtl pod_tepih
Ka 0 0 0
Kd 0.545098 0.219608 0.180392
Ks 0 0 0
illum 2
Ns 8
map_Kd 
map_bump 
bump 
map_opacity 
map_d 
refl 
map_kS 
map_kA 
map_Ns 

newmtl stupovi
Ka 0 0 0
Kd 1 1 1
Ks 0 0 0
illum 2
Ns 8
map_Kd data/KAMEN1.bmp
map_bump 
bump 
map_opacity 
map_d 
refl 
map_kS 
map_kA 
map_Ns 

newmtl kamen_zid
Ka 0.733333 0.729412 0.670588
Kd 1 1 1
Ks 0 0 0
illum 2
Ns 8
map_Kd data/KAMEN3.bmp
map_bump 
bump 
map_opacity 
map_d 
refl 
map_kS 
map_kA 
map_Ns 
